|${SEARCH_API} check top x name not|
|query |expected |checkTop |result? |kommentar|
|92287549|Cafeteatret World Choir|9999|||
|22809595|Borgengrenda Boligsameie|9999|||
|92015746|Coaching 24/7 AS|9999|||
|90570780|O. E. Sunde eiendom AS|9999|||
|95010729|Qhse-SA. Management - Svein Alstad|9999|||
|95809501|Sterk kropp, Sterkt Hode. Janne Distad|9999|||
|92406133|Truls Tunes Tilkomstteknikk og Rigging|9999|||
|48474365|Håndverker Szynalski|9999|||
|64854600|Ski bygg AS avd Mobalpa Grini|9999|||
|99495519|PT Linn Kristin Andersen|9999|||
|90213074|Morlandstø Malerfirma|9999|||
|4899850951|Darek bygg Dariusz Josef Sadowski|9999|||
|91327441|Pronex Gangsø avd Drift Av Web-Portaler|9999|||
|40462782|Sadowski Carpentry|9999|||
|92407065|Jarek Kolator|9999|||
|91828195|S-Data S Ramberg|9999|||
|91302400|Petter Andreas Haugland Engan|9999|||
|45515970|Westerdahl consulting|9999|||
|22012080|Sima Investering AS|9999|||
|51464990|Svåheia eiendom AS|9999|||
|90059000|Staff eiendom AS|9999|||
|90928412|Beltestakksølv AS|9999|||
|48869513|Vestbygda Idrettsforening|9999|||
|92418666|Karma eiendom og anlegg AS|9999|||
|8294|Fleksibilitet AS|9999|||
|48148820|Forset sport og Sosialclub|9999|||
|90653397|Alviro AS|9999|||
|98542816|Moto-tech Jimmy Hodges|9999|||
|93631825|Evensen software|9999|||
|92567935|Klbygg Kamil Slawomir Lach|9999|||
|40634711|Teresa Haugsgjerd|9999|||
|40554061|Barkonsult Mathias Alsen|9999|||
|40056131|Aktivum - Bjørn-Arild Woll|9999|||
|90670644|Lasse Fagerli Grave- og Utearbeid AS|9999|||
|55309600|Sameiet Horisont|9999|||
|90894417|Mfortitude AS|9999|||
|90111050|Ela eiendom AS|9999|||
|41334395|Ln consulting Norway AS|9999|||
|90223143|Dimond P.M.U Fariba Nasrollahy|9999|||
|47249843|Roger Elvheim Fredriksen|9999|||
|93015118|Stine Tveiten Eken|9999|||
|93474434|Aanviks Gass|9999|||
|94183434|Cedar technologies Ltd|9999|||
|41446802|Remedi AS|9999|||
|45861044|Løsberga 2 velforening|9999|||
|22012080|Inceptum 888 AS|9999|||
|93069064|Adrena AS|9999|||
|92829777|Designkonsulent Henriksen|9999|||
|41431479|Thor Egil Strømme|9999|||
|95851464|Unnis fotpleie Unni Forsth|9999|||
|97775600|By Horn Hellenes|9999|||
|48199716|Julian Hjønnevåg|9999|||
|91167996|Grøtegga Nyhus|9999|||
|22012080|Inceptum 885 AS|9999|||
|41621747|Victor Rosenlund AS|9999|||
|92015315|Allergotvegen/Skogvegen Veilag|9999|||
|92469233|Rockworld Publishing AS|9999|||
|98650453|Maksimalvital Ida Brenna|9999|||
|95218252|Prestvik Media|9999|||
|46614223|Kakejungelen Grynet Weronica Joramo Heimland|9999|||
|46685677|H.Birkelund invent|9999|||
|32832060|Barnelege Kai Samson Handeland|9999|||
|40589756|Usch consulting Schauroth|9999|||
|22012080|Inceptum 890 AS|9999|||
|92657048|Stortiset Holding AS|9999|||
|90091990|Robert Martinsen Holding AS|9999|||
|95209903|Cinzah hus og Hage|9999|||
|97061704|Mari Opseth|9999|||
|91848364|Edvardsdottir|9999|||
|90264097|Start bilpleie Pola Nevzat Resul|9999|||
|47266706|Mattias Rolighed Bergset|9999|||
|55943030|W. Giertsen 3hall AS|9999|||
|40486231|Pakistan Fashion Week Oslo|9999|||
|95935294|Kenneth Flaa|9999|||
|91393446|Lars Snoen|9999|||
|94488634|Rasmussen vedlikehold|9999|||
|93201636|Rs natur og bygg Skaar|9999|||
|95860057|Sta Hesteterapi Stine Tallaksrud Andreassen|9999|||
|22012080|Ocy Nelson 10 AS|9999|||
|93001130|2train AS|9999|||
|91133290|Breol eiendom AS|9999|||
|63912460|Fau Fjellfoten skole|9999|||
|91550876|Froland Venstre|9999|||
|91311422|Garvergården Holding AS|9999|||
|90977979|Svarstad utleie AS|9999|||
|93807385|Advokat Anna Juliusdottir AS|9999|||
|90087625|Frisør Berit Solheim|9999|||
|48351632|Arctic Field Management Torbjørn Opheim|9999|||
|96730392|Robert rørlegger Robert Niemiec|9999|||
|99481759|Ola Holst Åslund|9999|||
|91382306|Gud i Din By, Kristiansand|9999|||
|45569119|Raj service AS|9999|||
|97540254|Sundby gård Midtre Drift AS|9999|||
|45839160|Bærtur Kulinariske Christopher Schønefeld|9999|||
|92899189|Therese Sævik|9999|||
|96713404|Barcys rådgiver|9999|||
|95069585|Multi Montør Svendsen|9999|||
|97069876|Synne Sofi Bårdsdatter Bønes|9999|||
|22012080|Inceptum 889 AS|9999|||
|92654523|Nordahl invest AS|9999|||
|24022505|Nybuelve og Tverråne Kraftverker AS|9999|||
|93484544|Dagdrømmer Da|9999|||
|91311422|Garvergården eiendom AS|9999|||
|62455017|Skogstad/Berget ANS|9999|||
|90956753|Søylandsbygget AS|9999|||
|97178996|Lærlingkontoret Gudbrandsdalen|9999|||
|55215200|Nordic Maritime & offshore Arbitration Institute|9999|||
|97926255|A mat AS|9999|||
|48125585|Herfjord|9999|||
|45884159|Iris Maidre Aarvik|9999|||
|93899917|Prosjekt musikk og Magi Strande|9999|||
|97669904|Mso grafiske Marianne Søhoel Øvreseth|9999|||
|98083725|Frukthagen barnehage Jørgensen|9999|||
|22012080|Complector Ship Management AS|9999|||
|40005050|Sjetnan nedre B7/B8 AS|9999|||
|48008321|Gjv eiendom AS|9999|||
|22012080|Obligo Bx Holding AS|9999|||
|22823600|Correlate Solution AS|9999|||
|99587090|Carabasi AS|9999|||
|93696596|Tigerstaden Flytting Rokas Drungilas|9999|||
|97662630|Byggmester Jan Frydenlund invest|9999|||
|45812836|Sombook Abdirashid Maygaag Ismail|9999|||
|91613110|Sun service Sunanta Sailekthim Moseby|9999|||
|99630827|Arh Elektronikkservice Arnt Roger Helgemo|9999|||
|48088058|Vidar Heldal|9999|||
|41630602|Ravnås konsulenttjenester|9999|||
|46920033|The Pen Seyed-Abolghassem Jalali Zonouz|9999|||
|95034104|DJ Lars Lennox Lars Berge|9999|||
|40690720|Steinbra AS|9999|||
|92866816|Voice invest AS|9999|||
|45214553|Malin Braude frisør|9999|||
|91789244|Talkingnext Marius Meling Norheim|9999|||
|90596822|Svein Olav Simonsen|9999|||
|40410235|Turglad Åse Svinsholt|9999|||
|96807328|Peter bygg - Piotr Lech|9999|||
|40610785|Julemarked i Åsgårdstrand|9999|||
|47273769|Cemfib AS|9999|||
|32215500|Trysilhus Boligservice AS|9999|||
|4799167117|Per Se By Kleivane|9999|||
|99713579|Visuell, Wikse film og Foto|9999|||
|99859040|Koroma solutions|9999|||
|22104088|Astrup AS avd Bearbeiding Oslo|9999|||
|94808413|Fabel Bente Bente Brox|9999|||
|90739472|Blix|9999|||
|77632144|Skogvang AS|9999|||
|91880975|Grindrud Rørinspeksjon AS|9999|||
|48124884|Sørumsand systue V/Mirela Ibrisevic|9999|||
|93280329|Heit Strek Henrik Sæther|9999|||
|45204280|Bangsund Rør|9999|||
|99739260|Agk Merkantil service Anita Guro Kristiansen|9999|||
|93948363|Grzegorz Pilch Steinservice Arendal|9999|||
|46932966|Fotograf Tora Hatlestad|9999|||
|96692209|Pawel Rafal Denysiuk|9999|||
|95102567|Automasjons service Per M Brøten|9999|||
|48158273|Illustratør Ingvild S. Lien|9999|||
|45221165|Sverre Breivik|9999|||
|98025359|Black Kite AS|9999|||
|92416070|Olsen invest AS|9999|||
|97724709|Klubb Konto V/Twma Norge|9999|||
|46572372|International E-Health Consultancy Sabitri Rai|9999|||
|99507582|Plan Nyrønning|9999|||
|90695019|M Landsverk|9999|||
|45574528|Rosu Eusebiu-Vasile Seby Berg|9999|||
|98302337|Christer Olsen Photo|9999|||
|45809655|Wamo finans Hussein|9999|||
|71221112|Trollstigen Drift AS avd Nordal|9999|||
|90567016|Massivtre Bård Kåre Flem|9999|||
|91535306|Hellbys Tailoring|9999|||
|22129000|Nordvik & Partners Eiendomsmegling Frogner AS|9999|||
|21095910|Conta utvikling AS|9999|||
|40452131|Vitablendz AS|9999|||
|47660560|Scubanor Da|9999|||
|90578884|Tiset utleie|9999|||
|91792214|Soon Kanon Mads Opsahl|9999|||
|94737805|Valérie Guénec Coutand|9999|||
|45466980|Ringdal multiservice|9999|||
|91580459|Anderssen-Dukes tekst og Analyse|9999|||
|92221672|Cango Hans Christian Andersen Hannevig|9999|||
|90691110|Albriktsen/ Oterholm|9999|||
|91690547|Elektroinstallatør Yngvar Andersson|9999|||
|95150836|Hunter eiendom AS|9999|||
|71202200|Valldal Fjordhotell AS|9999|||
|94014696|Bonsaksen Autospa|9999|||
|90833253|Jb rådgivning John Helge Bergflødt|9999|||
|97798760|Dld Art Restaurering Dorota Wanda Leszczynska-Danek|9999|||
|90757167|Mikkelsen Hent&Bring|9999|||
|95135771|Lejonberg|9999|||
|90525612|Helt Sømmelig Ragnhild Røsset|9999|||
|90477663|Negigi Karla Elizabeth Braccia|9999|||
|55322655|Sandviken pizzeria Ali|9999|||
|45695503|Silje Anitra Silje Anitra Garfalk|9999|||
|41654390|Bodil Vik psykiatri Psykoterapi|9999|||
|47879000|Bjugan invest AS|9999|||
|90958555|Jenbi invest AS|9999|||
|95117695|VPB AS|9999|||
|95088858|Teft|9999|||
|93046476|Hkn Pensjonistlag|9999|||
|92649240|Kulabilder V/Ellen May Aspunvik|9999|||
|97964231|Merete Næss|9999|||
|33304200|Lindtel Com AS|9999|||
|45403744|D.H Degvold Byggservice|9999|||
|93015182|Moløkken maskinservice|9999|||
|45450805|Lars Martin Valmestad|9999|||
|91342275|Aarvik import|9999|||
|95926447|Hvelvet Underground Birgit Mikalsen Nedreberg|9999|||
|48334745|Andrianos Fasade & Hage Anderiano Josef|9999|||
|47095646|Astrid Egeland|9999|||
|95809987|Lund Aviation|9999|||
|75058600|Din Bemannings partner AS avd Fosnavåg|9999|||
|41225676|Foreldrerådet ved Kvam skole|9999|||
|46373722|Mile bygg midt-Norge AS|9999|||
|41476900|Phimit Phimphaka Kaeokaenkhun|9999|||
|93284182|Kristina Eikebråten Potet|9999|||
|41728487|Brevik Strikkestue|9999|||
|90619027|Ingjerd Alsvik Harestad|9999|||
|40627278|Kenneth Amundsen Hole|9999|||
|48636459|Rugile Kuncaite|9999|||
|55120831|Frydenbø bilutleie AS avd Åsane|9999|||
|99400325|Panorama helseprodukter Ida Gulliksen Werpen|9999|||
|46675370|Jacobsgata velforening|9999|||
|98225951|Einar Alsaker|9999|||
|99747158|Auvi helse|9999|||
|48138150|Meytech Eirik Meyer|9999|||
|95114408|T.Moe Padleglede|9999|||
|98491995|Efraidsen consulting|9999|||
|90109893|Super Rengjøring & Maling Flamur Ibrahimi|9999|||
|67579200|Coor service Management AS avd Aker solutions Fornebu|9999|||
|45234099|Kester Bandlien entertainment|9999|||
|90624360|Siv Kristin Flekke|9999|||
|40071172|A Mind To Perform Ricardo Gregorio Lugo|9999|||
|90696176|Gcw industrier Norge AS|9999|||
|4791325320|Loevlis Aurora Borealis Farm Hugo Løvli|9999|||
|90094717|Snekkeren Ronny Lorentsen|9999|||
|93030924|Vik|9999|||
|40563323|Rattanas Thaimassasje Rattanaporn Danmai|9999|||
|99627844|Emil Wiik Larsen Foto|9999|||
|98136253|Ikram Abdi Ahmed|9999|||
|97040409|Ståle Kristiansen|9999|||
|99266367|Camillas Forfatter og Kursvirksomhet Camilla Bøksle|9999|||
|41275057|Sverresborg Borettslags Parsellhager|9999|||
|92267981|Vinopola AS|9999|||
|99433829|Njól design|9999|||
|33141660|Hegdalveien 59 AS|9999|||
|93007658|Sandnes Parkettsliperi AS|9999|||
|98124298|Oslo og Akerhus Vedleveranse AS|9999|||
|47417988|Familieveileder Aspelund|9999|||
|90016140|M4 Bilservice & Bilsalg Sabah Amin|9999|||
|45817858|4wbaby Asia|9999|||
|97007255|Eirik Smith|9999|||
|41584167|Guldsvaag Soe|9999|||
|90501033|Jacobsen Drift|9999|||
|95173008|PT Martinsen|9999|||
|41418279|Hallstein Barstad|9999|||
|92518653|Kisteria Ventures|9999|||
|94177627|Diacar solutions Norge Bollingmo|9999|||
|91625494|Feriehjemmet Sandsvik|9999|||
|23103000|Hans og Erling Grinis Stiftelse|9999|||
|45230276|Fuglset consulting|9999|||
|94031238|Andersson tekniske|9999|||
|40059101|Dohuk pizza Gihan Abdulkadir Ahmad|9999|||
|90177911|Siau invest Augun Bård Storkaas|9999|||
|94818168|Idea Workforce AS|9999|||
|41676330|Jarfjord Fritidsgård AS|9999|||
|90780381|Husebygrenda Sandefjord|9999|||
|91759317|Barkenæs Holding AS|9999|||
|24045400|Marine Unmanned AS|9999|||
|40593618|Music Factory Dejan Milivojevic|9999|||
|45113724|Midcenturyscandinavia Maria Therese Knudsen|9999|||
|90191991|Stimar AS|9999|||
|48110132|Daniana AS|9999|||
|95995330|Hm Stranda invest AS|9999|||
|98436363|David Lindhal Davids Male & Fasadeservice|9999|||
|41668342|Sompong renhold AS|9999|||
|93635919|Andreas Berge|9999|||
|92406924|Evy Solli|9999|||
|90020743|Slind invest AS|9999|||
|93427614|Jfo AS|9999|||
|91373767|Bombom AS|9999|||
|93213917|Steinan nedre Utbygging AS|9999|||
|93045041|By Monica Høyer AS|9999|||
|98008324|Knem AS|9999|||
|22333733|Kouture Storo AS|9999|||
|41604539|Bydalen Språkvaskeri Astrid Hanne Utne|9999|||
|91730801|Siloen booking|9999|||
|95880362|Lars Lesteberg|9999|||
|40590900|FK Norge Tollefsjord|9999|||
|90616703|Advokat Kjell Sigve Haugland AS|9999|||
|96712732|E & Y malerservice AS|9999|||
|40554540|Horso AS|9999|||
|75193400|Korgen servicesenter eiendom AS|9999|||
|91594764|Goodier interiør|9999|||
|97777777|Tarjei Breiteig|9999|||
|91182924|Schreibtisch Verlag Børre Haugstad|9999|||
|45761819|Marek Krzysztof Tymoszuk|9999|||
|46941492|Bjørnar Heksem|9999|||
|93490085|Human Web André Giæver|9999|||
|97493725|Dølemo mat AS|9999|||
|94816515|Infinite invest AS|9999|||
|95995330|Hm Stranda eiendom AS|9999|||
|38170080|Atlanter invest 2 AS|9999|||
|47271443|Vi Snakkes AS|9999|||
|92612175|H.O.Y. Project Management Trine Karlsen|9999|||
|22878850|V-tech Norge|9999|||
|93283220|Advokatfirmaet Teigstad AS|9999|||
|90690046|Team Dagali AS|9999|||
|47882478|Gaarder bygg AS|9999|||
|95030500|Rondane consulting AS|9999|||
|38170080|BRG utvikling AS|9999|||
|46359726|Inorge forening|9999|||
|90860845|Standart AS|9999|||
|48667710|Tomas Sidlauskas|9999|||
|91616844|Helle-Olsen Naturopplevelser|9999|||
|45262903|Solcelle Eksperten Marcus Klausen Becher|9999|||
|92065279|Ingvild Alfheim konsulent|9999|||
|97189028|Alitek eiendom AS|9999|||
|92118780|Skjeggestad trading|9999|||
|95487725|Konsulent Haslund|9999|||
|90824252|Fuglafjell AS|9999|||
|45819208|Paul Vanaheim|9999|||
|46743771|Mads Veslelia|9999|||
|40000089|Haukeland eiendom AS|9999|||
|24045400|Xavi Capital Management AS|9999|||
|92803434|Dare To Designstudio AS|9999|||
|93063999|Dawson Fixindent IT|9999|||
|46227588|Nord-norsk Kulturhistorisk forening|9999|||
|47454001|JK Boligutleige AS|9999|||
|47289968|Studentboliger Gjøvik Campus AS|9999|||
|76089710|Stamsund billakkering AS|9999|||
|93409327|Uland AS|9999|||
|97547114|Lucky Heart Linda Sletten Heistad|9999|||
|47448847|Oppland vask og renhold V/Farid Abdulla|9999|||
|97965479|Solum consulting|9999|||
|97573378|NEFU Hedmark og Oppland|9999|||
|95007073|Bygg Man AS|9999|||
|98639138|Monsen Music|9999|||
|90505945|Hide Music Joakim Carlsen|9999|||
|38022313|Active Branch AS|9999|||
|93005938|Liftoff event Management AS|9999|||
|45534612|Trami Mihai Trasca|9999|||
|47622544|F.O.T. lyd DA|9999|||
|41854163|Erik Elvsvingen PT|9999|||
|106|dB Schenker Rail Aktiengesellschaft|9999|||
|51507777|Stavanger kommune Lassahagen bofellesskap|9999|||
|97761989|Travel Mind Nguyen|9999|||
|93082741|Nordre Gjernes Vannlag SA|9999|||
|91664628|Kringletjern Veilag|9999|||
|90161605|Atle Bergene|9999|||
|45222573|Tony Trees Tony Peter Davis|9999|||
|41308585|Fysioplan Sa|9999|||
|45036954|Lu, Lam Tu|9999|||
|93951053|Lapins bygg hus|9999|||
|45025189|Snekker Altmanis V/Andris Altmanis|9999|||
|94178551|Norges Privatistgymnas / Norges Privatistskole AS|9999|||
|90968355|Gaupen maskin AS|9999|||
|95108764|Ktg Holding AS|9999|||
|40059930|Wadagsin organisasjon|9999|||
|90979610|Wingman Music DA|9999|||
|41624033|Borg Medical AS|9999|||
|95223524|Buset Grunneigarlag SA|9999|||
|99599872|Strickertgården eiendom AS|9999|||
|48361706|Pedplan Da|9999|||
|90011280|Ækte AS|9999|||
|21685070|Freyja Investments AS|9999|||
|46428251|Smartebo AS|9999|||
|90860064|Retail Commercial group AS|9999|||
|91248301|Afritek AS|9999|||
|40913075|Abeli Energi AS|9999|||
|91644457|Anamar produkter AS|9999|||
|91888619|Lux By Marit AS|9999|||
|46411817|Mikroteknikk ANS|9999|||
|45869938|Marcin invest AS|9999|||
|97752329|Aase Verdiforvaltning AS|9999|||
|48043497|Bjørg Kvammen AS|9999|||
|98868686|Mysu AS|9999|||
|99520027|Nye Tromsø Gestaltsenter Eirin Heide|9999|||
|90131088|Iver Hole EF|9999|||
|91385324|Gunhild Nyaas|9999|||
|90792717|Gunnar A Rønningen|9999|||
|94982926|Almeland|9999|||
|93010352|Angeltveit Verdiforvaltning AS|9999|||
|72878585|Pet-Care AS|9999|||
|77682140|Storgata 63 DA|9999|||
|97951091|Feng Interiørdesign|9999|||
|67165500|Nordic hotel support|9999|||
|91808365|Fri - Rodriguez|9999|||
|33304444|Hesnes Flyinvest IV AS|9999|||
|91729606|Egstad transport AS|9999|||
|66980000|Warbo Gardemoen AS|9999|||
|47800200|Microlog AS|9999|||
|97089633|Tuene Holding AS|9999|||
|23111000|Tekågel invest 822 AS|9999|||
